Date,Open,High,Low,Close,Adj Close,Volume
2023-01-02,747.219970703125,747.219970703125,747.219970703125,747.219970703125,747.219970703125,0
2023-01-03,747.219970703125,762.469970703125,746.8599853515625,755.8300170898438,755.8300170898438,0
2023-01-04,755.8300170898438,761.25,754.5999755859375,758.4500122070312,758.4500122070312,0
2023-01-05,758.4500122070312,766.3699951171875,756.7899780273438,764.8099975585938,764.8099975585938,0
2023-01-06,764.8099975585938,770.6099853515625,764.6900024414062,770.5499877929688,770.5499877929688,0
2023-01-09,770.5499877929688,772.9000244140625,769.280029296875,772.5,772.5,0
2023-01-10,772.5,772.5,768.760009765625,769.6300048828125,769.6300048828125,0
2023-01-11,769.6300048828125,777.4199829101562,769.6300048828125,773.1400146484375,773.1400146484375,0
2023-01-12,773.1400146484375,781.3400268554688,773.1400146484375,781.2100219726562,781.2100219726562,0
2023-01-13,781.2000122070312,786.969970703125,780.489990234375,785.4199829101562,785.4199829101562,0
2023-01-16,785.4199829101562,787.1599731445312,784.9000244140625,786.5900268554688,786.5900268554688,0
2023-01-17,786.5900268554688,787.969970703125,783.5,785.0800170898438,785.0800170898438,0
2023-01-18,785.0800170898438,787.010009765625,782.8200073242188,783.25,783.25,0
2023-01-19,783.25,783.25,773.0399780273438,775.3200073242188,775.3200073242188,0
2023-01-20,775.3200073242188,779.2000122070312,775.1099853515625,777.0399780273438,777.0399780273438,0
2023-01-23,777.0399780273438,781.2100219726562,776.6099853515625,779.1599731445312,779.1599731445312,0
2023-01-24,779.1599731445312,779.739990234375,774.1099853515625,776.510009765625,776.510009765625,0
2023-01-25,776.510009765625,777.239990234375,771.25,774.1900024414062,774.1900024414062,0
2023-01-26,774.1900024414062,778.6900024414062,774.1900024414062,775.9400024414062,775.9400024414062,0
2023-01-27,775.9400024414062,777.5399780273438,773.989990234375,775.7899780273438,775.7899780273438,0
2023-01-30,775.7899780273438,779.0900268554688,771.7100219726562,778.6900024414062,778.6900024414062,0
2023-01-31,778.6900024414062,778.6900024414062,770.8200073242188,777.5399780273438,777.5399780273438,0
2023-02-01,777.5399780273438,779.8599853515625,774.5800170898438,775.9000244140625,775.9000244140625,0
2023-02-02,775.9000244140625,783.6099853515625,775.6799926757812,781.5900268554688,781.5900268554688,0
2023-02-03,781.5900268554688,790.4099731445312,780.3599853515625,789.780029296875,789.780029296875,0
2023-02-06,789.780029296875,789.780029296875,780.7000122070312,783.3800048828125,783.3800048828125,0
2023-02-07,783.3800048828125,789.0399780273438,783.3699951171875,786.2899780273438,786.2899780273438,0
2023-02-08,786.2899780273438,793.5700073242188,786.2899780273438,788.6799926757812,788.6799926757812,0
2023-02-09,788.6799926757812,795.3400268554688,788.0499877929688,792.3200073242188,792.3200073242188,0
2023-02-10,792.3200073242188,792.52001953125,785.75,788.2899780273438,788.2899780273438,0
2023-02-13,788.2899780273438,795.030029296875,788.2899780273438,794.8900146484375,794.8900146484375,0
2023-02-14,794.8900146484375,800.3099975585938,794.8900146484375,797.280029296875,797.280029296875,0
2023-02-15,797.2999877929688,800.9600219726562,792.8599853515625,800.780029296875,800.780029296875,0
2023-02-16,800.780029296875,805.2999877929688,798.5900268554688,801.9400024414062,801.9400024414062,0
2023-02-17,801.9400024414062,802.0999755859375,796.6599731445312,800.4400024414062,800.4400024414062,0
2023-02-20,800.4400024414062,802.8200073242188,800.4000244140625,802.1500244140625,802.1500244140625,0
2023-02-21,802.1500244140625,802.1500244140625,796.1799926757812,798.77001953125,798.77001953125,0
2023-02-22,798.77001953125,798.77001953125,788.9600219726562,793.3499755859375,793.3499755859375,0
2023-02-23,793.3499755859375,794.4299926757812,789.7000122070312,792.219970703125,792.219970703125,0
2023-02-24,792.219970703125,794.97998046875,788.0399780273438,789.6500244140625,789.6500244140625,0
2023-02-27,789.6500244140625,795.6799926757812,789.5800170898438,794.3499755859375,794.3499755859375,0
2023-02-28,794.3499755859375,794.4299926757812,786.27001953125,788.6300048828125,788.6300048828125,0
2023-03-01,788.6300048828125,795.7000122070312,788.5900268554688,791.9400024414062,791.9400024414062,0
2023-03-02,791.9400024414062,795.239990234375,788.219970703125,795.0800170898438,795.0800170898438,0
2023-03-03,795.0800170898438,798.0399780273438,792.510009765625,795.8300170898438,795.8300170898438,0
2023-03-06,795.8300170898438,795.8400268554688,790.5,793.2999877929688,793.2999877929688,0
2023-03-07,793.2999877929688,796.8200073242188,791.8599853515625,792.469970703125,792.469970703125,0
2023-03-08,792.469970703125,795.3099975585938,789.9199829101562,793.97998046875,793.97998046875,0
2023-03-09,793.97998046875,793.97998046875,786.9600219726562,788.8900146484375,788.8900146484375,0
2023-03-10,788.8900146484375,788.8900146484375,771.5700073242188,774.2999877929688,774.2999877929688,0
2023-03-13,774.3099975585938,775.1500244140625,755.22998046875,755.8099975585938,755.8099975585938,0
2023-03-14,755.8099975585938,764.8400268554688,751.0,763.3200073242188,763.3200073242188,0
2023-03-15,763.3200073242188,763.4400024414062,733.8499755859375,734.5900268554688,734.5900268554688,0
2023-03-16,734.5900268554688,746.3099975585938,733.5,741.22998046875,741.22998046875,0
2023-03-17,741.22998046875,751.4400024414062,731.239990234375,733.6500244140625,733.6500244140625,0
2023-03-20,733.6500244140625,742.8200073242188,721.0900268554688,740.3800048828125,740.3800048828125,0
2023-03-21,740.3800048828125,756.0800170898438,740.3800048828125,754.1400146484375,754.1400146484375,0
2023-03-22,754.1400146484375,758.9600219726562,750.8599853515625,757.0999755859375,757.0999755859375,0
2023-03-23,757.0999755859375,757.0999755859375,747.989990234375,750.3599853515625,750.3599853515625,0
2023-03-24,750.3599853515625,750.3900146484375,733.6799926757812,740.260009765625,740.260009765625,0
2023-03-27,740.260009765625,749.1500244140625,740.260009765625,748.02001953125,748.02001953125,0
2023-03-28,748.02001953125,752.25,746.3200073242188,748.52001953125,748.52001953125,0
2023-03-29,748.52001953125,756.3800048828125,748.52001953125,755.3599853515625,755.3599853515625,0
2023-03-30,755.3599853515625,763.5800170898438,755.3300170898438,761.97998046875,761.97998046875,0
2023-03-31,761.97998046875,765.280029296875,761.3599853515625,763.7999877929688,763.7999877929688,0
2023-04-03,763.7999877929688,769.9500122070312,763.7999877929688,767.0700073242188,767.0700073242188,0
2023-04-04,767.0700073242188,772.780029296875,763.6500244140625,764.0499877929688,764.0499877929688,0
2023-04-05,764.0499877929688,768.0800170898438,763.9299926757812,765.6500244140625,765.6500244140625,0
2023-04-06,765.6500244140625,774.510009765625,765.6500244140625,774.27001953125,774.27001953125,0
2023-04-11,774.280029296875,780.469970703125,774.280029296875,778.5599975585938,778.5599975585938,0
2023-04-12,778.5599975585938,786.0700073242188,778.5599975585938,782.52001953125,782.52001953125,0
2023-04-13,782.52001953125,785.280029296875,781.27001953125,784.7000122070312,784.7000122070312,0
2023-04-14,784.7000122070312,790.5999755859375,784.7000122070312,787.6799926757812,787.6799926757812,0
2023-04-17,787.6799926757812,792.0999755859375,787.6799926757812,788.7000122070312,788.7000122070312,0
2023-04-18,788.7000122070312,791.8300170898438,788.5,791.3900146484375,791.3900146484375,0
2023-04-19,791.3900146484375,791.3900146484375,787.6799926757812,790.2899780273438,790.2899780273438,0
2023-04-20,790.2899780273438,790.6300048828125,788.1300048828125,790.1900024414062,790.1900024414062,0
2023-04-21,790.1900024414062,793.8499755859375,789.0700073242188,790.9299926757812,790.9299926757812,0
2023-04-24,790.9400024414062,793.1199951171875,788.25,791.739990234375,791.739990234375,0
2023-04-25,791.739990234375,791.8499755859375,786.760009765625,789.739990234375,789.739990234375,0
2023-04-26,789.739990234375,789.780029296875,782.7999877929688,785.3099975585938,785.3099975585938,0
2023-04-27,785.3099975585938,786.6799926757812,781.75,783.0700073242188,783.0700073242188,0
2023-04-28,783.0700073242188,786.5599975585938,779.2000122070312,786.4400024414062,786.4400024414062,0
2023-05-02,786.4400024414062,789.7999877929688,777.4199829101562,777.4199829101562,777.4199829101562,0
2023-05-03,777.4199829101562,782.030029296875,777.4199829101562,778.8699951171875,778.8699951171875,0
2023-05-04,778.8699951171875,778.8699951171875,769.27001953125,770.8699951171875,770.8699951171875,0
2023-05-05,770.8699951171875,778.3300170898438,770.8699951171875,778.280029296875,778.280029296875,0
2023-05-08,778.280029296875,778.280029296875,778.280029296875,778.280029296875,778.280029296875,0
2023-05-09,778.280029296875,779.3300170898438,773.510009765625,775.3699951171875,775.3699951171875,0
2023-05-10,775.3699951171875,777.8400268554688,772.7899780273438,774.1300048828125,774.1300048828125,0
2023-05-11,774.1300048828125,778.52001953125,768.0399780273438,772.719970703125,772.719970703125,0
2023-05-12,772.719970703125,777.1199951171875,772.5999755859375,774.9600219726562,774.9600219726562,0
2023-05-15,774.9600219726562,779.260009765625,774.9500122070312,777.260009765625,777.260009765625,0
2023-05-16,777.260009765625,780.1599731445312,773.9400024414062,774.97998046875,774.97998046875,0
2023-05-17,774.97998046875,775.760009765625,770.97998046875,771.739990234375,771.739990234375,0
2023-05-18,771.739990234375,777.2899780273438,771.739990234375,774.0700073242188,774.0700073242188,0
2023-05-19,774.0700073242188,778.5700073242188,774.0700073242188,776.4000244140625,776.4000244140625,0
2023-05-22,776.4000244140625,777.8400268554688,774.5900268554688,776.75,776.75,0
2023-05-23,776.75,779.6099853515625,774.1400146484375,775.6300048828125,775.6300048828125,0
2023-05-24,775.6300048828125,775.6300048828125,758.4199829101562,760.8400268554688,760.8400268554688,0
2023-05-25,760.8400268554688,761.3200073242188,755.97998046875,757.0399780273438,757.0399780273438,0
2023-05-26,757.0399780273438,763.260009765625,754.5700073242188,761.9500122070312,761.9500122070312,0
2023-05-29,761.9500122070312,761.9500122070312,761.9500122070312,761.9500122070312,761.9500122070312,0
2023-05-30,761.9500122070312,761.9500122070312,750.27001953125,751.0900268554688,751.0900268554688,0
2023-05-31,751.0900268554688,751.0900268554688,743.4400024414062,743.4400024414062,743.4400024414062,0
2023-06-01,743.4400024414062,748.6099853515625,743.2999877929688,748.5800170898438,748.5800170898438,0
2023-06-02,748.5800170898438,760.1400146484375,748.3599853515625,760.0499877929688,760.0499877929688,0
2023-06-05,760.0499877929688,764.260009765625,758.0800170898438,758.3900146484375,758.3900146484375,0
2023-06-06,758.3900146484375,761.9099731445312,754.1699829101562,761.5,761.5,0
2023-06-07,761.5,762.52001953125,758.5900268554688,760.7999877929688,760.7999877929688,0
2023-06-08,760.7999877929688,762.0,757.02001953125,758.219970703125,758.219970703125,0
2023-06-09,758.219970703125,760.1699829101562,752.780029296875,754.1799926757812,754.1799926757812,0
2023-06-12,754.1799926757812,757.6799926757812,753.8099975585938,754.6599731445312,754.6599731445312,0
2023-06-13,754.6599731445312,759.0700073242188,753.6799926757812,757.780029296875,757.780029296875,0
2023-06-14,757.780029296875,762.0,756.02001953125,759.1199951171875,759.1199951171875,0
2023-06-15,759.1199951171875,761.219970703125,756.3200073242188,761.1699829101562,761.1699829101562,0
2023-06-16,761.1699829101562,766.75,761.1699829101562,762.4600219726562,762.4600219726562,0
2023-06-19,762.4600219726562,762.4600219726562,756.2100219726562,756.7899780273438,756.7899780273438,0
2023-06-20,756.7899780273438,758.8099975585938,754.6199951171875,754.6199951171875,754.6199951171875,0
2023-06-21,754.6199951171875,755.6699829101562,750.0999755859375,754.1500244140625,754.1500244140625,0
2023-06-22,754.1500244140625,754.1500244140625,743.8599853515625,747.5599975585938,747.5599975585938,0
2023-06-23,747.5599975585938,747.6699829101562,742.25,744.1900024414062,744.1900024414062,0
2023-06-26,744.1900024414062,745.6900024414062,738.3599853515625,743.3400268554688,743.3400268554688,0
2023-06-27,743.3400268554688,748.0800170898438,741.280029296875,745.0,745.0,0
2023-06-28,745.0,750.2999877929688,745.0,748.7899780273438,748.7899780273438,0
2023-06-29,748.7899780273438,749.02001953125,744.3099975585938,745.5999755859375,745.5999755859375,0
2023-06-30,745.5999755859375,753.3499755859375,745.5999755859375,751.6699829101562,751.6699829101562,0
2023-07-03,751.6599731445312,754.1400146484375,749.3499755859375,750.8200073242188,750.8200073242188,0
2023-07-04,750.8200073242188,752.7999877929688,749.8099975585938,749.9400024414062,749.9400024414062,0
2023-07-05,749.9400024414062,750.2899780273438,741.5499877929688,742.4000244140625,742.4000244140625,0
2023-07-06,742.4000244140625,742.4000244140625,724.75,725.489990234375,725.489990234375,0
2023-07-07,725.489990234375,725.52001953125,720.8400268554688,723.1599731445312,723.1599731445312,0
2023-07-10,723.1599731445312,728.47998046875,722.0700073242188,725.2899780273438,725.2899780273438,0
2023-07-11,725.2899780273438,726.52001953125,721.9000244140625,725.8800048828125,725.8800048828125,0
2023-07-12,725.8800048828125,740.52001953125,725.8800048828125,740.1099853515625,740.1099853515625,0
2023-07-13,740.1099853515625,743.8599853515625,739.0999755859375,742.4099731445312,742.4099731445312,0
2023-07-14,742.4099731445312,746.1699829101562,740.780029296875,742.0999755859375,742.0999755859375,0
2023-07-17,742.0999755859375,742.0999755859375,737.6199951171875,739.1500244140625,739.1500244140625,0
2023-07-18,739.1500244140625,743.8900146484375,737.77001953125,743.75,743.75,0
2023-07-19,743.75,760.6099853515625,743.75,758.0,758.0,0
2023-07-20,758.0,764.5,757.2899780273438,763.3699951171875,763.3699951171875,0
2023-07-21,763.3699951171875,765.6900024414062,762.1199951171875,764.4400024414062,764.4400024414062,0
2023-07-24,764.4400024414062,766.6799926757812,762.2100219726562,766.6400146484375,766.6400146484375,0
2023-07-25,766.6400146484375,768.4500122070312,765.75,767.5,767.5,0
2023-07-26,767.5,768.3099975585938,761.0599975585938,765.530029296875,765.530029296875,0
2023-07-27,765.530029296875,768.8400268554688,764.22998046875,768.1300048828125,768.1300048828125,0
2023-07-28,768.1300048828125,769.72998046875,766.2100219726562,767.75,767.75,0
2023-07-31,767.75,770.22998046875,764.6699829101562,768.3400268554688,768.3400268554688,0
2023-08-01,768.3400268554688,769.5900268554688,762.9500122070312,764.6199951171875,764.6199951171875,0
2023-08-02,764.6199951171875,764.6199951171875,750.4500122070312,753.1099853515625,753.1099853515625,0
2023-08-03,753.1099853515625,753.3099975585938,741.9400024414062,750.0900268554688,750.0900268554688,0
2023-08-04,750.0900268554688,754.9400024414062,746.75,754.52001953125,754.52001953125,0
2023-08-07,754.52001953125,754.52001953125,748.4600219726562,753.3599853515625,753.3599853515625,0
2023-08-08,753.3599853515625,753.4199829101562,746.8900146484375,750.52001953125,750.52001953125,0
2023-08-09,750.52001953125,758.1599731445312,750.52001953125,756.0499877929688,756.0499877929688,0
2023-08-10,756.0499877929688,760.4500122070312,754.8300170898438,759.760009765625,759.760009765625,0
2023-08-11,759.760009765625,759.760009765625,748.97998046875,750.52001953125,750.52001953125,0
2023-08-14,750.52001953125,751.1400146484375,745.8400268554688,748.219970703125,748.219970703125,0
2023-08-15,748.219970703125,748.469970703125,735.2000122070312,736.8400268554688,736.8400268554688,0
2023-08-16,736.8400268554688,737.7899780273438,731.760009765625,733.3900146484375,733.3900146484375,0
2023-08-17,733.3900146484375,733.4000244140625,728.5599975585938,728.6699829101562,728.6699829101562,0
2023-08-18,728.6699829101562,728.6699829101562,719.5,724.280029296875,724.280029296875,0
2023-08-21,724.280029296875,729.4400024414062,722.77001953125,723.52001953125,723.52001953125,0
2023-08-22,723.52001953125,728.5999755859375,723.52001953125,724.989990234375,724.989990234375,0
2023-08-23,724.989990234375,732.3400268554688,724.989990234375,729.719970703125,729.719970703125,0
2023-08-24,729.719970703125,735.9199829101562,729.719970703125,731.239990234375,731.239990234375,0
2023-08-25,731.239990234375,736.260009765625,730.0399780273438,731.7899780273438,731.7899780273438,0
2023-08-28,731.7899780273438,731.7899780273438,731.7899780273438,731.7899780273438,731.7899780273438,0
2023-08-29,731.7899780273438,744.2899780273438,731.7899780273438,743.969970703125,743.969970703125,0
2023-08-30,743.969970703125,748.0999755859375,743.719970703125,744.5999755859375,744.5999755859375,0
2023-08-31,744.5999755859375,746.8900146484375,741.5399780273438,741.5399780273438,741.5399780273438,0
2023-09-01,741.5399780273438,746.030029296875,741.5399780273438,743.5,743.5,0
2023-09-04,743.5,749.0399780273438,741.5599975585938,741.9000244140625,741.9000244140625,0
2023-09-05,741.9000244140625,744.8800048828125,735.780029296875,740.4600219726562,740.4600219726562,0
2023-09-06,740.4600219726562,741.6900024414062,733.8099975585938,739.3499755859375,739.3499755859375,0
2023-09-07,739.3499755859375,743.02001953125,735.4199829101562,741.0700073242188,741.0700073242188,0
2023-09-08,741.0700073242188,745.1699829101562,737.3300170898438,744.97998046875,744.97998046875,0
2023-09-11,744.97998046875,752.0900268554688,743.6900024414062,746.8400268554688,746.8400268554688,0
2023-09-12,746.8400268554688,752.1199951171875,746.72998046875,750.25,750.25,0
2023-09-13,750.25,751.6400146484375,746.22998046875,750.6599731445312,750.6599731445312,0
2023-09-14,750.6599731445312,765.77001953125,750.6199951171875,765.739990234375,765.739990234375,0
2023-09-15,765.739990234375,771.6500244140625,765.739990234375,769.760009765625,769.760009765625,0
2023-09-18,769.760009765625,769.760009765625,761.1500244140625,761.9099731445312,761.9099731445312,0
2023-09-19,761.9099731445312,765.02001953125,761.0399780273438,762.6500244140625,762.6500244140625,0
2023-09-20,762.6500244140625,771.469970703125,762.280029296875,771.0700073242188,771.0700073242188,0
2023-09-21,771.0700073242188,772.1199951171875,764.8699951171875,765.47998046875,765.47998046875,0
2023-09-22,765.47998046875,771.2100219726562,762.25,766.8699951171875,766.8699951171875,0
2023-09-25,766.8699951171875,766.8699951171875,756.3300170898438,760.2100219726562,760.2100219726562,0
2023-09-26,760.2100219726562,764.0800170898438,757.9299926757812,761.3699951171875,761.3699951171875,0
2023-09-27,761.3699951171875,763.0999755859375,755.989990234375,757.3300170898438,757.3300170898438,0
2023-09-28,757.3300170898438,759.010009765625,751.0599975585938,758.7000122070312,758.7000122070312,0
2023-09-29,758.7000122070312,765.8099975585938,758.7000122070312,760.7000122070312,760.7000122070312,0
2023-10-02,760.7000122070312,761.4199829101562,747.3900146484375,749.1199951171875,749.1199951171875,0
2023-10-03,749.1199951171875,752.6799926757812,744.9299926757812,745.7100219726562,745.7100219726562,0
2023-10-04,745.7100219726562,747.3099975585938,736.7999877929688,739.3599853515625,739.3599853515625,0
2023-10-05,739.3599853515625,747.27001953125,739.3300170898438,743.75,743.75,0
2023-10-06,743.75,748.5700073242188,741.219970703125,748.5700073242188,748.5700073242188,0
2023-10-09,748.5700073242188,752.9299926757812,746.2100219726562,748.0599975585938,748.0599975585938,0
2023-10-10,748.0599975585938,762.6099853515625,748.0599975585938,762.3200073242188,762.3200073242188,0
2023-10-11,762.3200073242188,764.02001953125,759.8300170898438,761.1500244140625,761.1500244140625,0
2023-10-12,761.1500244140625,767.9600219726562,761.1500244140625,763.719970703125,763.719970703125,0
2023-10-13,763.719970703125,765.010009765625,758.010009765625,758.8099975585938,758.8099975585938,0
2023-10-16,758.8099975585938,764.1400146484375,757.3099975585938,762.5800170898438,762.5800170898438,0
2023-10-17,762.5800170898438,767.3800048828125,760.9500122070312,767.0399780273438,767.0399780273438,0
2023-10-18,767.0399780273438,767.0700073242188,756.489990234375,757.4299926757812,757.4299926757812,0
2023-10-19,757.4299926757812,757.6599731445312,747.530029296875,748.989990234375,748.989990234375,0
2023-10-20,748.989990234375,748.989990234375,738.0399780273438,738.72998046875,738.72998046875,0
2023-10-23,738.72998046875,738.72998046875,732.5599975585938,736.030029296875,736.030029296875,0
2023-10-24,736.030029296875,739.030029296875,731.1400146484375,737.1599731445312,737.1599731445312,0
2023-10-25,737.1599731445312,741.0999755859375,735.1500244140625,740.0399780273438,740.0399780273438,0
2023-10-26,740.0399780273438,740.0999755859375,732.4600219726562,733.75,733.75,0
2023-10-27,733.75,736.0,725.8900146484375,727.3699951171875,727.3699951171875,0
2023-10-30,727.3699951171875,734.2999877929688,727.3699951171875,730.6199951171875,730.6199951171875,0
2023-10-31,730.6199951171875,735.6400146484375,729.3200073242188,729.8400268554688,729.8400268554688,0
2023-11-01,729.8400268554688,736.6699829101562,728.47998046875,732.47998046875,732.47998046875,0
2023-11-02,732.47998046875,745.530029296875,732.47998046875,742.969970703125,742.969970703125,0
2023-11-03,742.969970703125,746.8200073242188,738.280029296875,739.0399780273438,739.0399780273438,0
2023-11-06,739.0399780273438,743.25,738.760009765625,740.8800048828125,740.8800048828125,0
2023-11-07,740.8800048828125,741.760009765625,738.2999877929688,739.719970703125,739.719970703125,0
2023-11-08,739.719970703125,742.780029296875,737.1699829101562,739.239990234375,739.239990234375,0
2023-11-09,739.239990234375,745.4099731445312,735.489990234375,744.4400024414062,744.4400024414062,0
2023-11-10,744.4400024414062,744.4400024414062,730.6400146484375,734.4500122070312,734.4500122070312,0
2023-11-13,734.4500122070312,741.1900024414062,734.4500122070312,741.1699829101562,741.1699829101562,0
2023-11-14,741.1699829101562,744.5499877929688,737.3800048828125,743.5399780273438,743.5399780273438,0
2023-11-15,743.5399780273438,751.969970703125,743.5399780273438,746.3800048828125,746.3800048828125,0
2023-11-16,746.3800048828125,747.4000244140625,739.219970703125,739.3099975585938,739.3099975585938,0
2023-11-17,739.3099975585938,749.030029296875,739.3099975585938,748.4199829101562,748.4199829101562,0
2023-11-20,748.4199829101562,748.6199951171875,745.3300170898438,747.6900024414062,747.6900024414062,0
2023-11-21,747.6900024414062,747.8499755859375,743.030029296875,746.5499877929688,746.5499877929688,0
2023-11-22,746.5499877929688,748.9199829101562,743.7100219726562,745.25,745.25,0
2023-11-23,745.25,747.8499755859375,743.5599975585938,747.4099731445312,747.4099731445312,0
2023-11-24,747.4099731445312,748.0,743.5399780273438,747.6500244140625,747.6500244140625,0
2023-11-27,747.6500244140625,747.6500244140625,743.75,745.0,745.0,0
2023-11-28,745.0,745.0,738.8900146484375,744.1400146484375,744.1400146484375,0
2023-11-29,744.1400146484375,744.1599731445312,739.1400146484375,740.969970703125,740.969970703125,0
2023-11-30,740.969970703125,748.02001953125,736.989990234375,742.8200073242188,742.8200073242188,0
2023-12-01,742.8200073242188,752.3400268554688,742.8200073242188,751.510009765625,751.510009765625,0
2023-12-04,751.510009765625,751.9199829101562,746.1699829101562,749.3099975585938,749.3099975585938,0
2023-12-05,749.3099975585938,749.3099975585938,744.5999755859375,747.510009765625,747.510009765625,0
2023-12-06,747.510009765625,753.1099853515625,747.510009765625,751.8499755859375,751.8499755859375,0
2023-12-07,751.8499755859375,751.8499755859375,746.7899780273438,750.4199829101562,750.4199829101562,0
2023-12-08,750.4199829101562,756.5800170898438,749.6300048828125,754.030029296875,754.030029296875,0
2023-12-11,754.030029296875,754.4600219726562,748.030029296875,753.8800048828125,753.8800048828125,0
2023-12-12,753.8800048828125,759.3699951171875,752.8099975585938,753.5700073242188,753.5700073242188,0
2023-12-13,753.5700073242188,757.1699829101562,753.3099975585938,754.25,754.25,0
2023-12-14,754.25,770.780029296875,754.25,763.72998046875,763.72998046875,0
2023-12-15,763.72998046875,765.6099853515625,755.6599731445312,756.3200073242188,756.3200073242188,0
2023-12-18,756.3200073242188,761.719970703125,754.5499877929688,760.3200073242188,760.3200073242188,0
2023-12-19,760.3200073242188,762.969970703125,759.2100219726562,762.8200073242188,762.8200073242188,0
2023-12-20,762.8200073242188,774.9500122070312,762.8200073242188,771.1900024414062,771.1900024414062,0
2023-12-21,771.1900024414062,771.1900024414062,765.739990234375,768.4600219726562,768.4600219726562,0
2023-12-22,768.4600219726562,770.22998046875,766.75,769.1599731445312,769.1599731445312,0
2023-12-27,769.1599731445312,774.7899780273438,768.8900146484375,771.489990234375,771.489990234375,0
2023-12-28,771.489990234375,773.3099975585938,769.6699829101562,771.27001953125,771.27001953125,0
2023-12-29,771.27001953125,773.3599853515625,770.72998046875,772.469970703125,772.469970703125,0
